
state={
	id=164
	name="STATE_164"

	history={
		owner = TUR
		victory_points = {
			10007 1 
		}
		buildings = {
			infrastructure = 5
			air_base = 1
			10007 = {
				naval_base = 4

			}
			7003 = {
				naval_base = 1

			}

		}
		add_core_of = GRE
		add_core_of = TUR

	}

	provinces={
		7003 10007 13222 
	}
	manpower=120000
	buildings_max_level_factor=1.000
	state_category=small_island
}
