state={
	id=796
	name="STATE_796"
	history={
		owner = TUR
		add_core_of = TUR
		buildings = {
			infrastructure = 5
		}
	}
	provinces={
		922 3893 11842 13223 
	}
	manpower=354215
	state_category=town
	buildings_max_level_factor=1.000
}
